{
  "defaultCommandTimeout": 10000,
  "pageLoadTimeout": 30000,
  "projectId": "wfo39c",
  "reporter": "mochawesome",
  "env":
  {
    "url": "https://www.rahulshettyacademy.com"
  },
  
  "testFiles": "**/*.feature",

  "retries":{
    "runMode": 1
  }

}
